module radiohub

go 1.22.2

toolchain go1.23.4

require (
	github.com/gin-contrib/cors v1.7.3
	github.com/hegedustibor/htgo-tts v0.0.0-20211114121522-d6dac668e0be
	github.com/stretchr/testify v1.9.0
	go.mongodb.org/mongo-driver v1.17.1
)

require (
	github.com/bytedance/sonic v1.12.6 // indirect
	github.com/bytedance/sonic/loader v0.2.1 // indirect
	github.com/cloudwego/base64x v0.1.4 // indirect
	github.com/cloudwego/iasm v0.2.0 // indirect
	github.com/davecgh/go-spew v1.1.1 // indirect
	github.com/gabriel-vasile/mimetype v1.4.7 // indirect
	github.com/gin-contrib/sse v0.1.0 // indirect
	github.com/go-playground/locales v0.14.1 // indirect
	github.com/go-playground/universal-translator v0.18.1 // indirect
	github.com/go-playground/validator/v10 v10.23.0 // indirect
	github.com/goccy/go-json v0.10.4 // indirect
	github.com/golang/snappy v0.0.4 // indirect
	github.com/json-iterator/go v1.1.12 // indirect
	github.com/klauspost/compress v1.13.6 // indirect
	github.com/klauspost/cpuid/v2 v2.2.9 // indirect
	github.com/kr/text v0.2.0 // indirect
	github.com/leodido/go-urn v1.4.0 // indirect
	github.com/mattn/go-isatty v0.0.20 // indirect
	github.com/modern-go/concurrent v0.0.0-20180306012644-bacd9c7ef1dd // indirect
	github.com/modern-go/reflect2 v1.0.2 // indirect
	github.com/montanaflynn/stats v0.7.1 // indirect
	github.com/pelletier/go-toml/v2 v2.2.3 // indirect
	github.com/pmezard/go-difflib v1.0.0 // indirect
	github.com/twitchyliquid64/golang-asm v0.15.1 // indirect
	github.com/ugorji/go/codec v1.2.12 // indirect
	github.com/xdg-go/pbkdf2 v1.0.0 // indirect
	github.com/xdg-go/scram v1.1.2 // indirect
	github.com/xdg-go/stringprep v1.0.4 // indirect
	github.com/youmark/pkcs8 v0.0.0-20240726163527-a2c0da244d78 // indirect
	golang.org/x/arch v0.12.0 // indirect
	golang.org/x/crypto v0.31.0 // indirect
	golang.org/x/net v0.33.0 // indirect
	golang.org/x/sync v0.10.0 // indirect
	golang.org/x/text v0.21.0 // indirect
	google.golang.org/protobuf v1.36.1 // indirect
	gopkg.in/yaml.v3 v3.0.1 // indirect
)

require (
	github.com/gin-gonic/gin v1.10.0
	golang.org/x/sys v0.28.0 // indirect
)
